{
  "project_info": {
    "project_number": "1054330211868",
    "firebase_url": "https://date-zone-34add-default-rtdb.firebaseio.com",
    "project_id": "date-zone-34add",
    "storage_bucket": "date-zone-34add.appspot.com"
  },
  "client": [
    {
      "client_info": {
        "mobilesdk_app_id": "1:1054330211868:android:6ba9bfe0d1d423438dd9d9",
        "android_client_info": {
          "package_name": "com.sugardaddy.citascasualesconocergentenuevacercadeti"
        }
      },
      "oauth_client": [
        {
          "client_id": "1054330211868-5sfome0jjrgjdhoik4imtlcsnknjqfa4.apps.googleusercontent.com",
          "client_type": 3
        }
      ],
      "api_key": [
        {
          "current_key": "AIzaSyBi-0SEXoojBjKVg1-MIBFLWjGb2KHR3iI"
        }
      ],
      "services": {
        "appinvite_service": {
          "other_platform_oauth_client": [
            {
              "client_id": "1054330211868-5sfome0jjrgjdhoik4imtlcsnknjqfa4.apps.googleusercontent.com",
              "client_type": 3
            }
          ]
        }
      }
    }
  ],
  "configuration_version": "1"
}